#whenever this is a row or a column, we just make an epoch
0x00008100,0x00008100,1
0x00008101,0x00008100,1
0x00008102,0x00008100,1
0x00008103,0x00008100,1
0x00008104,0x00008100,1
0x00008105,0x00008100,1
0x00008106,0x00008100,1
0x00008107,0x00008100,1
0x00008108,0x00008100,1
0x00008109,0x00008100,1
0x0000810a,0x00008100,1
0x0000810b,0x00008100,1
0x0000810c,0x00008100,1
0x0000810d,0x00008100,1
0x0000810e,0x00008100,1
0x0000810f,0x00008100,1
0x00008110,0x00008100,1
0x00008111,0x00008100,1
0x00008112,0x00008100,1
0x00008113,0x00008100,1
0x00008114,0x00008100,1
0x00008115,0x00008100,1
0x00008116,0x00008100,1
0x00008117,0x00008100,1
0x00008118,0x00008100,1
0x00008119,0x00008100,1
0x0000811a,0x00008100,1
0x0000811b,0x00008100,1
0x0000811c,0x00008100,1
0x0000811d,0x00008100,1
0x0000811e,0x00008100,1
0x0000811f,0x00008100,1
