-4.3801e+05,-3.0845e+05,-3.0113e+05,-1.9999e+05,-1.2714e+05,-2.3057e+05,-2.9457e+05,-44005,3.1375e+05,5.6035e+05,7.0104e+05,8.1024e+05,8.8789e+05,8.518e+05,7.2906e+05,4.9681e+05,2.9822e+05,4.0437e+05,9.7104e+05,1.7292e+06,2.1996e+06,2.2643e+06,2.2035e+06,2.5409e+06,3.3135e+06,4.1251e+06,4.4082e+06,3.9311e+06,2.8691e+06,1.4841e+06,2.598e+05,-6.5568e+05,-1.495e+06,-2.35e+06,-2.9893e+06,-3.1107e+06,-2.8969e+06,-2.559e+06,-2.1918e+06,-1.8475e+06,-1.6004e+06,-1.7034e+06,-2.1798e+06,-2.7701e+06,-3.2189e+06,-3.5103e+06,-3.7346e+06,-3.8142e+06,-3.718e+06,-3.31e+06,-2.5463e+06,-1.5155e+06,-4.8003e+05,3.1798e+05,7.8576e+05,8.2869e+05,7.361e+05,7.1607e+05,9.1502e+05,1.2849e+06,1.6068e+06,1.7255e+06,1.6609e+06,1.6517e+06,1.79e+06,2.1798e+06,2.7264e+06,3.1823e+06,3.4261e+06,3.3687e+06,3.1573e+06,2.9234e+06,2.6993e+06,2.5034e+06,2.3509e+06,2.2304e+06,2.1128e+06,2.0685e+06,2.0322e+06,1.8742e+06,1.6223e+06,1.4275e+06,1.5939e+06,2.2629e+06,3.2915e+06,4.4154e+06,5.4936e+06,6.374e+06,6.7663e+06,6.3579e+06,4.9751e+06,2.9694e+06,7.9834e+05,-1.0641e+06,-2.3394e+06,-3.1235e+06,-3.5797e+06,-4.0052e+06,-4.4479e+06,-4.7884e+06,-4.773e+06,-4.4217e+06,-4.1735e+06,-4.3161e+06,-4.8185e+06,-5.3226e+06,-5.5698e+06,-5.5079e+06,-5.3822e+06,-5.4311e+06,-5.6003e+06,-5.7662e+06,-5.8029e+06,-5.7335e+06,-5.5533e+06,-5.2349e+06,-4.7813e+06
-1.3359e+05,76598,1.7955e+05,2.9208e+05,3.9012e+05,3.9183e+05,2.9536e+05,2.2413e+05,2.6126e+05,3.9572e+05,4.8922e+05,4.5925e+05,3.9877e+05,3.6942e+05,3.5625e+05,2.9115e+05,1.757e+05,82686,76098,2.1564e+05,4.903e+05,8.5483e+05,1.2318e+06,1.6404e+06,2.0415e+06,2.3252e+06,2.3897e+06,2.0912e+06,1.4526e+06,6.4859e+05,-55469,-5.3452e+05,-8.0759e+05,-9.0588e+05,-8.831e+05,-6.9518e+05,-4.3077e+05,-2.5943e+05,-2.91e+05,-5.3687e+05,-9.214e+05,-1.4008e+06,-1.8105e+06,-2.0052e+06,-1.9038e+06,-1.51e+06,-9.2597e+05,-2.9105e+05,2.1562e+05,4.9089e+05,4.0007e+05,-1.0571e+05,-9.6221e+05,-2.0376e+06,-3.0598e+06,-3.7925e+06,-4.0558e+06,-3.8601e+06,-3.3435e+06,-2.691e+06,-2.0333e+06,-1.3904e+06,-8.5706e+05,-4.6919e+05,-2.1092e+05,-22047,1.5792e+05,3.5536e+05,6.5921e+05,1.0756e+06,1.5887e+06,2.13e+06,2.5585e+06,2.7852e+06,2.8091e+06,2.7345e+06,2.6377e+06,2.6023e+06,2.5997e+06,2.5585e+06,2.45e+06,2.2414e+06,2.0068e+06,1.8099e+06,1.7253e+06,1.7758e+06,1.9312e+06,2.1162e+06,2.2245e+06,2.244e+06,2.1274e+06,1.797e+06,1.2511e+06,6.8947e+05,3.6472e+05,3.4864e+05,5.3895e+05,6.3578e+05,4.8603e+05,1.4111e+05,-2.5863e+05,-5.6777e+05,-7.6207e+05,-8.9585e+05,-1.08e+06,-1.2672e+06,-1.3193e+06,-1.1835e+06,-9.3686e+05,-7.4973e+05,-7.1765e+05,-8.4402e+05,-1.0634e+06,-1.3631e+06,-1.7167e+06,-2.0286e+06,-2.2271e+06
4.7093e+05,3.0361e+05,-5048.6,43824,2.527e+05,2.1638e+05,38413,96695,4.3727e+05,8.2507e+05,9.996e+05,8.6456e+05,5.438e+05,3.4484e+05,4.0614e+05,4.0677e+05,1.8913e+05,16709,3.5655e+05,1.2924e+06,2.1866e+06,2.3664e+06,1.9923e+06,1.9434e+06,2.6138e+06,3.6821e+06,4.4192e+06,4.3193e+06,3.4774e+06,2.3793e+06,1.4862e+06,7.1877e+05,-1.2901e+05,-1.0734e+06,-1.8117e+06,-2.1645e+06,-2.2833e+06,-2.2771e+06,-2.1834e+06,-1.9454e+06,-1.5931e+06,-1.4978e+06,-1.8748e+06,-2.3424e+06,-2.6865e+06,-3.1595e+06,-3.7324e+06,-4.0992e+06,-4.1552e+06,-3.8065e+06,-2.9682e+06,-1.8193e+06,-6.9774e+05,1.8448e+05,6.9688e+05,6.9976e+05,3.7684e+05,35495,46252,3.8722e+05,7.4032e+05,8.9485e+05,8.6905e+05,8.223e+05,8.9621e+05,1.3557e+06,2.1079e+06,2.7241e+06,3.0181e+06,2.9566e+06,2.7489e+06,2.6728e+06,2.7925e+06,2.8803e+06,2.8015e+06,2.6055e+06,2.3082e+06,2.0613e+06,2.0039e+06,2.0512e+06,1.935e+06,1.6131e+06,1.4888e+06,1.9815e+06,2.9805e+06,4.0602e+06,4.9977e+06,5.7166e+06,6.1198e+06,5.9263e+06,4.7797e+06,2.8595e+06,7.3956e+05,-1.0198e+06,-2.1587e+06,-2.7851e+06,-3.1287e+06,-3.5137e+06,-4.0905e+06,-4.7641e+06,-5.0732e+06,-4.8029e+06,-4.3834e+06,-4.3473e+06,-4.7322e+06,-5.2036e+06,-5.6164e+06,-5.8573e+06,-5.956e+06,-5.9236e+06,-5.7063e+06,-5.4465e+06,-5.1984e+06,-4.9784e+06,-4.6903e+06,-4.3286e+06,-3.87e+06
-1.6496e+05,2.0257e+05,3.8693e+05,4.9637e+05,5.0548e+05,3.4701e+05,1.0337e+05,68292,3.176e+05,6.8845e+05,9.0219e+05,8.3115e+05,6.7404e+05,5.6391e+05,5.3847e+05,5.0369e+05,3.971e+05,2.5976e+05,2.3614e+05,4.9492e+05,9.2621e+05,1.3978e+06,1.8741e+06,2.5441e+06,3.4357e+06,4.1913e+06,4.387e+06,3.8127e+06,2.7459e+06,1.5429e+06,4.9377e+05,-3.6781e+05,-1.1172e+06,-1.6915e+06,-2.0243e+06,-2.0008e+06,-1.7868e+06,-1.6067e+06,-1.5202e+06,-1.5228e+06,-1.5931e+06,-1.834e+06,-2.1595e+06,-2.3917e+06,-2.3861e+06,-2.1749e+06,-1.9501e+06,-1.8141e+06,-1.8866e+06,-2.1505e+06,-2.6237e+06,-3.2772e+06,-4.0074e+06,-4.7037e+06,-5.1496e+06,-5.2782e+06,-5.0036e+06,-4.3695e+06,-3.4566e+06,-2.3971e+06,-1.3912e+06,-4.8803e+05,2.6839e+05,9.3814e+05,1.4925e+06,1.9195e+06,2.297e+06,2.6384e+06,3.0323e+06,3.42e+06,3.8005e+06,4.1381e+06,4.3566e+06,4.4808e+06,4.4949e+06,4.4315e+06,4.2698e+06,4.095e+06,3.8933e+06,3.5926e+06,3.2358e+06,2.8583e+06,2.5686e+06,2.3787e+06,2.3386e+06,2.4155e+06,2.5656e+06,2.7442e+06,2.7535e+06,2.5623e+06,2.0932e+06,1.3259e+06,3.4542e+05,-5.8154e+05,-1.1374e+06,-1.3272e+06,-1.2743e+06,-1.2295e+06,-1.281e+06,-1.4187e+06,-1.603e+06,-1.6913e+06,-1.6361e+06,-1.4716e+06,-1.3785e+06,-1.3782e+06,-1.3122e+06,-1.0752e+06,-7.1017e+05,-4.8141e+05,-5.0277e+05,-7.7069e+05,-1.1477e+06,-1.5693e+06,-2.0544e+06,-2.5123e+06,-2.8011e+06
4.8977e+05,8.929e+05,9.8338e+05,9.8839e+05,1.0075e+06,1.0076e+06,9.9685e+05,1.1579e+06,1.3878e+06,1.5273e+06,1.4528e+06,1.1431e+06,7.7864e+05,5.2607e+05,4.2762e+05,2.1599e+05,-2.6862e+05,-7.8059e+05,-8.5329e+05,-3.2843e+05,2.5607e+05,4.8671e+05,5.0345e+05,1.0085e+06,2.2329e+06,3.6283e+06,4.4795e+06,4.4719e+06,3.9149e+06,3.1781e+06,2.6366e+06,2.2655e+06,1.7279e+06,8.7372e+05,-1.6217e+05,-9.6655e+05,-1.4072e+06,-1.5368e+06,-1.4728e+06,-1.368e+06,-1.3586e+06,-1.6185e+06,-2.1159e+06,-2.724e+06,-3.3213e+06,-4.0187e+06,-4.8376e+06,-5.5044e+06,-5.8179e+06,-5.5892e+06,-4.9697e+06,-4.2156e+06,-3.4674e+06,-2.7761e+06,-2.1989e+06,-2.0113e+06,-2.1954e+06,-2.5189e+06,-2.5475e+06,-2.1441e+06,-1.5125e+06,-9.0477e+05,-5.7903e+05,-3.7771e+05,-85208,5.0922e+05,1.392e+06,2.264e+06,2.9716e+06,3.3672e+06,3.6296e+06,3.9328e+06,4.2416e+06,4.456e+06,4.5345e+06,4.5227e+06,4.4227e+06,4.3653e+06,4.2966e+06,4.1079e+06,3.7828e+06,3.4249e+06,3.2897e+06,3.3367e+06,3.4354e+06,3.559e+06,3.8432e+06,4.2099e+06,4.2876e+06,3.9622e+06,3.1239e+06,1.946e+06,6.8855e+05,-2.766e+05,-7.3973e+05,-8.5138e+05,-7.803e+05,-8.1662e+05,-1.0443e+06,-1.4533e+06,-1.8323e+06,-1.9258e+06,-1.8223e+06,-1.7324e+06,-1.8566e+06,-2.1068e+06,-2.3682e+06,-2.5865e+06,-2.7565e+06,-2.9401e+06,-3.0885e+06,-3.1788e+06,-3.1497e+06,-3.1227e+06,-3.2532e+06,-3.4319e+06,-3.4e+06
4.9623e+05,9.4155e+05,1.232e+06,1.542e+06,1.7828e+06,1.7787e+06,1.5045e+06,1.1945e+06,1.0103e+06,9.1994e+05,7.4002e+05,3.9841e+05,38281,-2.3279e+05,-3.6221e+05,-3.6892e+05,-3.0447e+05,-3.0435e+05,-5.4838e+05,-1.0238e+06,-1.602e+06,-2.1042e+06,-2.5131e+06,-2.7593e+06,-2.7728e+06,-2.493e+06,-1.9399e+06,-1.3271e+06,-7.8771e+05,-3.7371e+05,1.067e+05,8.0867e+05,1.6064e+06,2.2904e+06,2.7095e+06,2.9522e+06,3.0233e+06,2.8015e+06,2.1989e+06,1.382e+06,7.1301e+05,3.3007e+05,2.2262e+05,2.5461e+05,3.515e+05,4.7797e+05,5.9071e+05,6.9188e+05,7.0374e+05,5.5251e+05,1.1549e+05,-5.3337e+05,-1.2532e+06,-1.9759e+06,-2.6007e+06,-3.0849e+06,-3.3189e+06,-3.2663e+06,-2.9648e+06,-2.5262e+06,-2.0428e+06,-1.6003e+06,-1.3912e+06,-1.4397e+06,-1.6509e+06,-1.801e+06,-1.7107e+06,-1.4016e+06,-9.5241e+05,-5.4514e+05,-2.3153e+05,-3315.8,1.3405e+05,1.5734e+05,94191,99439,2.46e+05,5.3329e+05,8.2185e+05,1.0367e+06,1.1774e+06,1.1974e+06,1.1285e+06,9.9031e+05,8.6056e+05,7.8647e+05,8.4421e+05,1.0434e+06,1.2844e+06,1.6395e+06,2.051e+06,2.3354e+06,2.3332e+06,2.1426e+06,1.9658e+06,1.8329e+06,1.7073e+06,1.4153e+06,9.6405e+05,4.8271e+05,1.475e+05,1.172e+05,3.5422e+05,6.7295e+05,8.287e+05,8.2479e+05,7.7017e+05,7.7421e+05,8.5408e+05,8.7423e+05,8.0365e+05,6.6922e+05,5.3631e+05,3.7224e+05,2.0664e+05,1.5229e+05,2.1074e+05
-6.675e+05,-4.9111e+05,-3.8814e+05,-2.1792e+05,-1.4784e+05,-2.3822e+05,-2.2573e+05,1.7349e+05,7.7546e+05,1.27e+06,1.4081e+06,1.2009e+06,9.5193e+05,8.4865e+05,8.7049e+05,7.873e+05,5.6081e+05,3.8597e+05,5.6313e+05,1.1099e+06,1.673e+06,2.0543e+06,2.3832e+06,3.0914e+06,4.1601e+06,5.0422e+06,5.1694e+06,4.3866e+06,3.0618e+06,1.6318e+06,5.1173e+05,-3.2565e+05,-1.1443e+06,-2.0181e+06,-2.6845e+06,-2.8419e+06,-2.6425e+06,-2.2738e+06,-1.9026e+06,-1.6369e+06,-1.5304e+06,-1.7168e+06,-2.0991e+06,-2.4848e+06,-2.7359e+06,-2.9689e+06,-3.2905e+06,-3.5262e+06,-3.5804e+06,-3.3769e+06,-2.9804e+06,-2.4667e+06,-1.9781e+06,-1.6505e+06,-1.4183e+06,-1.3237e+06,-1.2228e+06,-1.0473e+06,-6.7574e+05,-1.1099e+05,4.4641e+05,8.3647e+05,1.0405e+06,1.3184e+06,1.7898e+06,2.3969e+06,2.9039e+06,3.1015e+06,3.1269e+06,3.0536e+06,2.9629e+06,2.8666e+06,2.7868e+06,2.7583e+06,2.7133e+06,2.6429e+06,2.5671e+06,2.619e+06,2.7348e+06,2.7172e+06,2.4036e+06,1.9044e+06,1.6634e+06,1.8531e+06,2.3591e+06,2.9942e+06,3.6995e+06,4.3357e+06,4.5922e+06,4.2942e+06,3.3178e+06,1.9061e+06,4.2987e+05,-7.1598e+05,-1.3101e+06,-1.572e+06,-1.7461e+06,-2.0609e+06,-2.4497e+06,-2.7638e+06,-2.7631e+06,-2.3933e+06,-2.0223e+06,-1.9862e+06,-2.3496e+06,-2.7931e+06,-3.0106e+06,-2.8317e+06,-2.4322e+06,-2.2141e+06,-2.2864e+06,-2.5633e+06,-2.8374e+06,-3.1101e+06,-3.4366e+06,-3.7035e+06,-3.7123e+06
-2.7169e+05,-5.6411e+05,-6.9362e+05,-4.5304e+05,-7488.5,2.6514e+05,2.3837e+05,1.5394e+05,2.7857e+05,6.1166e+05,8.0138e+05,6.4801e+05,3.7623e+05,2.421e+05,3.4716e+05,6.4996e+05,1.0477e+06,1.3264e+06,1.3164e+06,1.0505e+06,7.006e+05,3.6495e+05,-72047,-5.8121e+05,-9.8518e+05,-1.112e+06,-1.0152e+06,-9.1043e+05,-8.466e+05,-6.8596e+05,-2.3696e+05,4.2794e+05,1.1828e+06,1.9065e+06,2.4982e+06,3.0824e+06,3.6003e+06,3.8957e+06,3.8432e+06,3.4458e+06,2.8047e+06,1.9351e+06,9.9739e+05,1.3772e+05,-4.6466e+05,-7.4715e+05,-7.7734e+05,-6.3907e+05,-4.7588e+05,-3.2499e+05,-2.6257e+05,-3.2578e+05,-4.7738e+05,-7.295e+05,-1.1309e+06,-1.6649e+06,-2.1155e+06,-2.3089e+06,-2.1855e+06,-1.8571e+06,-1.4447e+06,-9.2246e+05,-3.7075e+05,65463,2.5391e+05,1.5991e+05,-2.0536e+05,-7.5947e+05,-1.2529e+06,-1.5554e+06,-1.6444e+06,-1.5914e+06,-1.484e+06,-1.3573e+06,-1.2291e+06,-1.1216e+06,-1.1602e+06,-1.2587e+06,-1.2467e+06,-1.0661e+06,-8.4605e+05,-7.574e+05,-7.5675e+05,-7.5334e+05,-6.6864e+05,-4.7506e+05,-1.6612e+05,2.1014e+05,6.0863e+05,1.0408e+06,1.3801e+06,1.4543e+06,1.195e+06,8.4286e+05,6.3288e+05,5.9807e+05,6.8599e+05,6.5667e+05,4.5466e+05,1.5137e+05,-83533,-15995,3.1848e+05,6.3195e+05,6.3199e+05,3.2795e+05,32317,16102,2.5944e+05,5.1794e+05,6.5416e+05,6.9462e+05,6.8551e+05,5.2021e+05,2.335e+05,34848,-60221
1.5181e+05,6.1502e+05,8.0365e+05,8.7519e+05,8.5836e+05,7.4584e+05,5.7543e+05,6.4012e+05,9.6922e+05,1.3616e+06,1.4983e+06,1.1937e+06,6.8969e+05,2.0524e+05,-1.0487e+05,-3.0137e+05,-4.2325e+05,-4.9076e+05,-4.6341e+05,-2.0903e+05,1.2018e+05,4.3078e+05,6.9857e+05,1.1818e+06,2.0138e+06,2.9003e+06,3.4101e+06,3.186e+06,2.4574e+06,1.5949e+06,9.8174e+05,6.8342e+05,5.0055e+05,3.5555e+05,1.9391e+05,1.9612e+05,3.076e+05,3.7837e+05,3.0633e+05,31605,-3.1624e+05,-7.2316e+05,-1.0614e+06,-1.2951e+06,-1.3813e+06,-1.3853e+06,-1.5135e+06,-1.7744e+06,-2.218e+06,-2.7632e+06,-3.4405e+06,-4.1758e+06,-4.8498e+06,-5.4455e+06,-5.7607e+06,-5.7151e+06,-5.1814e+06,-4.2648e+06,-3.1409e+06,-2.0037e+06,-1.0562e+06,-2.8718e+05,1.7554e+05,3.7414e+05,3.6249e+05,3.4172e+05,6.0925e+05,1.1587e+06,1.9266e+06,2.6211e+06,3.1571e+06,3.5364e+06,3.7169e+06,3.6646e+06,3.3333e+06,2.9387e+06,2.6177e+06,2.5278e+06,2.5749e+06,2.6481e+06,2.7889e+06,2.9084e+06,3.0194e+06,3.0104e+06,2.8631e+06,2.5568e+06,2.211e+06,1.9811e+06,1.7632e+06,1.6124e+06,1.4247e+06,1.1267e+06,6.4603e+05,1.3044e+05,-1.1116e+05,-1.2215e+05,-63234,-2.8206e+05,-7.9293e+05,-1.3966e+06,-1.8426e+06,-1.857e+06,-1.4628e+06,-8.1566e+05,-2.6001e+05,58334,1.6471e+05,1.8279e+05,1.8688e+05,-12828,-4.1302e+05,-9.538e+05,-1.4095e+06,-1.6822e+06,-1.8303e+06,-1.8162e+06,-1.6476e+06
-4.4414e+05,-8.4898e+05,-1.0737e+06,-7.2854e+05,-19056,3.9664e+05,2.6775e+05,-19540,89118,6.3332e+05,9.4428e+05,6.7459e+05,2.7291e+05,1.0715e+05,2.9436e+05,7.8741e+05,1.3123e+06,1.5031e+06,1.2302e+06,6.3172e+05,9215.8,-4.0936e+05,-7.3132e+05,-1.0601e+06,-1.3726e+06,-1.5147e+06,-1.387e+06,-1.1581e+06,-9.0542e+05,-4.4624e+05,3.3136e+05,1.1602e+06,1.9074e+06,2.555e+06,3.0654e+06,3.6331e+06,4.139e+06,4.2924e+06,3.93e+06,3.1629e+06,2.1633e+06,1.0297e+06,1.9951e+05,-2.1534e+05,-3.6859e+05,-3.9962e+05,-2.5725e+05,1.6755e+05,7.5135e+05,1.2773e+06,1.3853e+06,9.3528e+05,75130,-9.9194e+05,-2.1113e+06,-3.0917e+06,-3.7194e+06,-3.8813e+06,-3.6391e+06,-3.1586e+06,-2.572e+06,-1.7872e+06,-9.3565e+05,-3.0524e+05,-61205,-2.6934e+05,-9.0585e+05,-1.6714e+06,-2.057e+06,-2.0021e+06,-1.6896e+06,-1.3109e+06,-1.121e+06,-1.1228e+06,-1.0733e+06,-8.1604e+05,-6.342e+05,-5.8687e+05,-5.1249e+05,-3.4141e+05,-2.2414e+05,-3.1009e+05,-3.581e+05,-2.3444e+05,48413,5.216e+05,1.1508e+06,1.684e+06,1.9251e+06,1.9881e+06,2.0197e+06,1.9257e+06,1.5846e+06,1.2327e+06,1.0603e+06,1.1532e+06,1.4911e+06,1.7166e+06,1.6679e+06,1.3923e+06,9.8134e+05,6.4267e+05,4.7322e+05,3.7259e+05,1.2604e+05,-1.3545e+05,-77703,2.8536e+05,6.7036e+05,7.244e+05,4.4002e+05,46178,-2.4162e+05,-3.9902e+05,-3.5987e+05,-86393,1.4935e+05
-5.6699e+05,-2.5855e+05,-59112,78822,1.3459e+05,1.1604e+05,7844.8,43926,2.4783e+05,5.2409e+05,7.6826e+05,8.3058e+05,7.3738e+05,5.02e+05,2.7215e+05,30855,-2.6497e+05,-5.3063e+05,-6.0223e+05,-2.9369e+05,1.9484e+05,6.5436e+05,9.7701e+05,1.4136e+06,2.2216e+06,3.2209e+06,4.0139e+06,4.1199e+06,3.6002e+06,2.774e+06,1.9942e+06,1.3719e+06,7.2517e+05,-10841,-7.9749e+05,-1.3684e+06,-1.6795e+06,-1.7926e+06,-1.7672e+06,-1.719e+06,-1.6309e+06,-1.6556e+06,-1.806e+06,-2.0981e+06,-2.4652e+06,-2.8045e+06,-3.153e+06,-3.4346e+06,-3.716e+06,-3.8399e+06,-3.7014e+06,-3.3205e+06,-2.8084e+06,-2.3886e+06,-2.0443e+06,-1.8835e+06,-1.8558e+06,-1.963e+06,-2.081e+06,-2.014e+06,-1.7773e+06,-1.3507e+06,-8.9072e+05,-3.7429e+05,1.8136e+05,7.5406e+05,1.3634e+06,1.8964e+06,2.4277e+06,2.8689e+06,3.2341e+06,3.5084e+06,3.6757e+06,3.8256e+06,3.894e+06,3.9216e+06,3.8401e+06,3.7725e+06,3.7633e+06,3.7017e+06,3.5585e+06,3.2759e+06,3.0658e+06,3.0221e+06,3.1845e+06,3.4446e+06,3.7184e+06,4.0374e+06,4.2562e+06,4.3186e+06,4.0099e+06,3.2808e+06,2.2397e+06,1.1437e+06,3.2995e+05,-2.05e+05,-4.8947e+05,-7.2271e+05,-9.783e+05,-1.2959e+06,-1.6355e+06,-1.7695e+06,-1.7147e+06,-1.5758e+06,-1.5803e+06,-1.7338e+06,-1.9262e+06,-2.0734e+06,-2.1052e+06,-2.1889e+06,-2.3605e+06,-2.6643e+06,-3.0014e+06,-3.3261e+06,-3.6746e+06,-3.9381e+06,-4.0743e+06
-3.1786e+05,-1.3541e+05,6034.4,2.3471e+05,4.4182e+05,5.0549e+05,3.991e+05,2.7282e+05,2.4988e+05,3.2831e+05,3.1686e+05,1.1372e+05,-1.29e+05,-3.13e+05,-4.1356e+05,-4.3601e+05,-3.4013e+05,-1.6613e+05,-74004,-88293,-1.3482e+05,-1.2483e+05,-1.7251e+05,-3.8096e+05,-8.0261e+05,-1.3351e+06,-1.744e+06,-1.9577e+06,-1.9955e+06,-1.9311e+06,-1.5512e+06,-6.4392e+05,6.1781e+05,1.9087e+06,2.9554e+06,3.7378e+06,4.196e+06,4.1779e+06,3.6362e+06,2.7748e+06,2.0113e+06,1.5539e+06,1.4628e+06,1.5717e+06,1.7075e+06,1.8258e+06,1.9349e+06,2.0815e+06,2.1889e+06,2.1405e+06,1.756e+06,1.0852e+06,2.9228e+05,-5.3916e+05,-1.2946e+06,-1.9413e+06,-2.3751e+06,-2.5693e+06,-2.5778e+06,-2.459e+06,-2.2292e+06,-1.9265e+06,-1.7644e+06,-1.8219e+06,-2.0554e+06,-2.2827e+06,-2.3562e+06,-2.2581e+06,-1.9716e+06,-1.6356e+06,-1.2851e+06,-9.7555e+05,-7.9517e+05,-7.7028e+05,-8.7102e+05,-9.5049e+05,-9.2208e+05,-7.3546e+05,-5.1428e+05,-3.3997e+05,-1.9397e+05,-1.0919e+05,-52099,-59795,-95095,-79848,77939,3.2295e+05,5.1383e+05,7.6366e+05,1.117e+06,1.4943e+06,1.6901e+06,1.6861e+06,1.6387e+06,1.599e+06,1.5902e+06,1.4565e+06,1.1632e+06,7.6356e+05,3.5747e+05,93266,26323,90109,93695,43652,23977,78234,2.0018e+05,2.4965e+05,2.4668e+05,2.09e+05,1.4618e+05,32759,-98149,-1.5005e+05,-93813
1.8617e+05,-1.1832e+05,-3.4676e+05,-1.4604e+05,2.634e+05,4.8441e+05,4.1198e+05,2.8331e+05,3.6551e+05,6.1667e+05,5.9006e+05,1.9655e+05,-1.9367e+05,-4.8678e+05,-7.6827e+05,-1.0635e+06,-1.3323e+06,-1.5518e+06,-1.6116e+06,-1.3163e+06,-6.2681e+05,3.1471e+05,1.1729e+06,1.7683e+06,1.9952e+06,1.8999e+06,1.6597e+06,1.3756e+06,1.1408e+06,1.0066e+06,1.1155e+06,1.3876e+06,1.5977e+06,1.6716e+06,1.5673e+06,1.3757e+06,1.0153e+06,4.332e+05,-1.9838e+05,-5.4821e+05,-4.6489e+05,-1.8382e+05,2.5616e+05,7.1436e+05,1.0494e+06,1.3013e+06,1.626e+06,2.1089e+06,2.5653e+06,2.714e+06,2.2323e+06,1.2356e+06,91863,-1.0456e+06,-2.1287e+06,-3.0566e+06,-3.5943e+06,-3.6493e+06,-3.3776e+06,-2.9336e+06,-2.3491e+06,-1.681e+06,-1.1853e+06,-9.6774e+05,-9.5407e+05,-1.1188e+06,-1.52e+06,-1.977e+06,-2.0402e+06,-1.6634e+06,-1.0566e+06,-4.5914e+05,-1.3755e+05,-2.1153e+05,-5.0829e+05,-6.9418e+05,-6.4219e+05,-3.5588e+05,-46436,1.1301e+05,63970,-1.8604e+05,-3.9922e+05,-5.1034e+05,-5.2347e+05,-3.0003e+05,2.5431e+05,8.9543e+05,1.2796e+06,1.4086e+06,1.4627e+06,1.4653e+06,1.2496e+06,9.9085e+05,9.1386e+05,1.0163e+06,1.2822e+06,1.4594e+06,1.4475e+06,1.262e+06,9.1628e+05,5.5483e+05,3.3168e+05,2.5828e+05,1.2773e+05,16940,67763,2.2709e+05,4.1339e+05,3.9829e+05,1.5506e+05,-1.5957e+05,-3.944e+05,-5.3471e+05,-5.1985e+05,-3.273e+05,-72939
-7.8808e+05,-6.5714e+05,-4.378e+05,-41782,3.1509e+05,3.9714e+05,2.2066e+05,1.1487e+05,2.2459e+05,4.5915e+05,5.8412e+05,5.2093e+05,4.7802e+05,5.4593e+05,7.2635e+05,8.8055e+05,8.8897e+05,7.3002e+05,5.4005e+05,5.5156e+05,7.7577e+05,1.1384e+06,1.5671e+06,2.1975e+06,3.0638e+06,3.8836e+06,4.2436e+06,3.8305e+06,2.7905e+06,1.457e+06,2.0557e+05,-8.5502e+05,-1.7309e+06,-2.29e+06,-2.4122e+06,-1.9981e+06,-1.3465e+06,-8.1822e+05,-5.5519e+05,-5.2049e+05,-6.2958e+05,-9.531e+05,-1.3707e+06,-1.7308e+06,-1.8766e+06,-1.7711e+06,-1.5597e+06,-1.3708e+06,-1.4054e+06,-1.6858e+06,-2.2163e+06,-2.8762e+06,-3.4861e+06,-3.9596e+06,-4.188e+06,-4.2023e+06,-3.9378e+06,-3.3952e+06,-2.6166e+06,-1.7221e+06,-8.7426e+05,-86054,5.924e+05,1.2089e+06,1.7427e+06,2.1349e+06,2.3166e+06,2.2405e+06,2.0966e+06,1.979e+06,1.967e+06,2.0435e+06,2.1558e+06,2.31e+06,2.46e+06,2.5998e+06,2.6363e+06,2.6434e+06,2.6182e+06,2.4673e+06,2.1144e+06,1.5805e+06,1.1591e+06,1.0036e+06,1.1327e+06,1.4478e+06,1.8905e+06,2.3803e+06,2.6978e+06,2.8038e+06,2.5785e+06,1.9585e+06,1.0136e+06,78993,-4.9414e+05,-6.7783e+05,-5.5515e+05,-3.9554e+05,-3.1449e+05,-3.6813e+05,-5.2487e+05,-6.1082e+05,-5.9675e+05,-5.4348e+05,-6.5183e+05,-9.1433e+05,-1.0622e+06,-8.4829e+05,-3.1194e+05,1.6469e+05,3.4653e+05,1.8215e+05,-2.0038e+05,-7.382e+05,-1.3841e+06,-1.97e+06,-2.3518e+06
