-0.56226,-0.56406,-0.46089,-0.29032,-0.2939,-0.14873,-0.12342,-0.11657,-0.024235,-0.12491,-0.090429,-0.14634,-0.25322,-0.17205,-0.1755,-0.022302,0.03704,-0.056477,0.068915,0.18595,0.57,1.0899,1.4338,1.7745,1.7408,1.5687,1.4323,1.1816,1.1544,1.0084,0.76083,0.55509,0.14821,-0.078096,-0.27168,-0.43832,-0.42166,-0.62245,-0.80578,-1.0389,-1.3022,-1.2097,-1.0568,-0.71719,-0.37416,-0.30867,-0.17179,-0.15459,-0.048276,0.1895,0.24925,0.4405,0.52897,0.50944,0.49669,0.25333,0.15747,0.060181,-0.096834,-0.11785,-0.29079,-0.28669,-0.18441,-0.13875,0.10889,0.1989,0.3208,0.51765,0.59229,0.84452,0.98343,1.1079,1.2874,1.1984,1.1496,0.96419,0.75737,0.76038,0.66171,0.73177,0.7763,0.71712,0.83837,0.82014,0.86901,0.92225,0.84898,0.94043,0.90222,0.87885,0.87774,0.67613,0.63879,0.54013,0.42526,0.36565,0.09497,-0.061657,-0.28557,-0.56127,-0.67561,-0.9066,-0.96328,-0.98382,-1.1129,-1.1096,-1.2631,-1.3439,-1.3864,-1.5637,-1.5793,-1.7094,-1.7775,-1.6975,-1.7015,-1.5395,-1.4949,-1.4884,-1.3426,-1.3128,-1.0968,-0.92891,-0.93024,-0.87079,-0.97005,-0.92351,-0.8529,-0.87538
-0.4779,-0.53933,-0.50483,-0.37154,-0.45154,-0.3392,-0.37662,-0.44218,-0.32867,-0.42335,-0.33761,-0.34019,-0.44079,-0.32796,-0.39893,-0.33393,-0.34341,-0.51491,-0.35035,-0.17075,0.31017,0.9304,1.2401,1.5227,1.4037,1.2035,1.1444,0.90479,0.8633,0.63238,0.24096,-0.051059,-0.5683,-0.84305,-1.0294,-1.1918,-1.0883,-1.2255,-1.335,-1.4942,-1.7465,-1.5967,-1.4452,-1.1316,-0.75001,-0.65647,-0.45563,-0.4411,-0.39009,-0.154,-0.13075,0.071507,0.14721,0.054003,0.019038,-0.28018,-0.38953,-0.46815,-0.62995,-0.5606,-0.6425,-0.54847,-0.36091,-0.30539,-0.017013,0.069203,0.15561,0.35305,0.39211,0.65769,0.78973,0.87158,1.072,0.99428,1.0089,0.86221,0.60801,0.5986,0.47989,0.59624,0.75373,0.78378,1.0066,0.98212,0.99672,1.0834,1.0494,1.2614,1.2993,1.2939,1.336,1.1159,1.0831,0.98439,0.85006,0.83571,0.57125,0.45861,0.31787,0.12007,0.13981,-0.044385,-0.10265,-0.13137,-0.31278,-0.29621,-0.46905,-0.57842,-0.605,-0.8012,-0.77935,-0.89632,-0.99097,-0.89908,-0.93646,-0.75162,-0.6666,-0.67239,-0.53069,-0.57444,-0.41338,-0.27828,-0.35493,-0.32834,-0.4975,-0.49983,-0.44045,-0.54814
-0.21695,-0.3287,-0.3037,-0.13893,-0.088886,0.077596,0.073065,0.020649,0.081986,0.0059543,0.06908,0.040371,-0.063436,-0.010305,-0.055854,0.046661,0.11116,0.055383,0.20512,0.32791,0.63316,0.96924,1.0321,1.081,0.90828,0.77314,0.78305,0.67822,0.71367,0.60251,0.40748,0.33836,0.14226,0.072855,-0.039456,-0.17948,-0.13261,-0.24121,-0.29614,-0.37855,-0.51157,-0.34641,-0.16029,0.1862,0.57013,0.68062,0.76604,0.59763,0.40854,0.38151,0.27657,0.38929,0.43498,0.29303,0.090681,-0.3507,-0.6496,-0.93997,-1.308,-1.5061,-1.7614,-1.7805,-1.6287,-1.5139,-1.2184,-1.0666,-0.89969,-0.65824,-0.57147,-0.36609,-0.26277,-0.13179,0.14956,0.22932,0.33329,0.26389,0.1171,0.1874,0.20794,0.4049,0.59823,0.66766,0.88564,0.96173,1.088,1.2464,1.2666,1.402,1.3834,1.3615,1.4233,1.3462,1.419,1.3895,1.2745,1.2398,1.0526,0.97385,0.83216,0.62237,0.55848,0.32643,0.19029,0.11043,-0.028282,0.001655,-0.1121,-0.19881,-0.25315,-0.44166,-0.44217,-0.49556,-0.49454,-0.39343,-0.45073,-0.38753,-0.39959,-0.41972,-0.27084,-0.23982,-0.093968,-0.052702,-0.20773,-0.25755,-0.39558,-0.3767,-0.35255,-0.49614
-0.02381,-0.17831,-0.14953,0.039707,-0.14117,0.09546,0.0092353,-0.093765,0.062054,-0.19474,-0.031736,-0.061038,-0.24282,-0.083711,-0.31227,-0.16845,-0.093825,-0.25044,0.1021,0.1949,0.62762,1.1314,1.1537,1.403,1.1277,0.90489,0.93961,0.60416,0.62582,0.24177,-0.29546,-0.52365,-1.1143,-1.2396,-1.3811,-1.5514,-1.2699,-1.4707,-1.4938,-1.5611,-1.7915,-1.3673,-1.1159,-0.57358,0.063795,0.19425,0.58345,0.53621,0.53412,0.82801,0.70657,0.9455,0.8684,0.53506,0.37003,-0.31911,-0.65239,-1.0214,-1.5366,-1.5581,-1.8839,-1.8285,-1.6295,-1.6861,-1.2746,-1.2505,-1.1078,-0.75009,-0.74955,-0.33047,-0.22704,-0.14612,0.22176,0.10382,0.25668,0.105,-0.21622,-0.076604,-0.24837,-0.0061139,0.25953,0.30231,0.77683,0.80934,1.0109,1.297,1.2236,1.5499,1.4835,1.4548,1.6171,1.3302,1.4637,1.392,1.2832,1.4788,1.1759,1.172,1.0269,0.72345,0.84816,0.54584,0.51761,0.5049,0.19489,0.33706,0.092299,-0.011561,0.035566,-0.25809,-0.073599,-0.17747,-0.22933,0.0037893,-0.17185,0.056322,0.06414,-0.055994,0.16054,-0.068008,0.076526,0.17457,0.01279,0.2348,0.028797,0.064999,0.12724,-0.17512
-0.37066,-0.50778,-0.31777,-0.096705,-0.24072,0.039798,-0.091726,-0.11147,0.045653,-0.21017,-0.015662,-0.10601,-0.1904,0.011148,-0.21325,-0.01753,-0.042842,-0.19161,0.16995,0.27193,0.85259,1.3531,1.3739,1.5712,1.2074,1.116,1.2151,0.96462,1.0464,0.56932,0.040918,-0.28109,-0.9178,-0.97876,-1.1531,-1.2188,-0.88985,-1.023,-0.8338,-0.84082,-0.971,-0.56475,-0.44315,0.045625,0.45108,0.44937,0.76065,0.58046,0.58266,0.73227,0.51709,0.71948,0.51792,0.23974,0.03256,-0.69434,-0.98857,-1.4559,-1.9068,-1.9111,-2.2177,-1.9997,-1.7905,-1.7577,-1.3465,-1.4185,-1.2383,-1.0152,-1.0786,-0.70522,-0.71122,-0.52159,-0.14476,-0.17807,0.14504,0.0558,-0.044541,0.15878,-0.011965,0.26064,0.36329,0.39751,0.80946,0.75907,1.0118,1.1676,1.1114,1.4846,1.424,1.5304,1.5792,1.2168,1.2992,1.1023,1.0802,1.1948,0.82617,0.85325,0.66539,0.56226,0.77504,0.5315,0.65918,0.61916,0.43354,0.57809,0.23308,0.17986,0.10132,-0.19822,-0.072469,-0.34994,-0.37492,-0.24794,-0.39744,-0.10146,-0.17804,-0.18132,0.012235,-0.16663,0.13478,0.18391,0.10642,0.24042,-0.076577,0.043192,0.067728,-0.06382
-0.21802,-0.35424,-0.27076,-0.084969,-0.18071,-0.045801,-0.16439,-0.22095,-0.07611,-0.20525,-0.040116,-0.04739,-0.19448,-0.15462,-0.3153,-0.084669,0.085762,-5.7984e-06,0.087111,-0.10259,-0.033132,0.091789,-0.064177,0.01505,-0.20094,-0.31506,-0.24746,-0.40355,-0.22267,-0.21376,-0.21488,-0.056928,-0.27296,-0.25241,-0.34611,-0.43704,-0.13157,-0.075326,0.12207,0.14754,-0.016261,0.25029,0.36231,0.66413,1.0096,0.97893,1.0275,0.73221,0.58061,0.72803,0.69536,0.99292,1.0627,0.96894,0.94955,0.51998,0.26387,-0.11531,-0.56544,-0.6363,-0.88665,-0.90255,-0.98202,-1.2098,-0.94608,-0.86157,-0.74704,-0.64474,-0.79753,-0.58549,-0.53173,-0.41759,-0.15729,-0.27526,-0.18862,-0.29319,-0.48544,-0.42531,-0.55916,-0.31558,-0.079128,-0.077668,0.13133,0.043809,0.12948,0.24661,0.20321,0.53349,0.60062,0.6562,0.69227,0.35438,0.37952,0.37498,0.50096,0.77253,0.61522,0.67091,0.58289,0.39,0.48463,0.28267,0.27583,0.20903,-0.051523,0.0037912,-0.19954,-0.27066,-0.30259,-0.54971,-0.4752,-0.62986,-0.65876,-0.45752,-0.53718,-0.42087,-0.50269,-0.51329,-0.23552,-0.28131,-0.10036,-0.045019,-0.19158,-0.10548,-0.2751,-0.21825,-0.21702,-0.4141
-0.16315,-0.14684,-0.20515,-0.00071108,0.012184,0.081399,0.14404,-0.021446,0.075084,0.053504,0.079744,0.20677,0.064568,0.083859,-0.014741,-0.097215,0.05682,0.045643,0.30072,0.58161,0.80904,1.2096,1.223,1.1824,1.0481,0.80131,0.91835,0.89969,0.88236,0.7359,0.15254,-0.31551,-0.93613,-1.4455,-1.627,-1.8419,-1.7176,-1.6745,-1.7374,-1.6246,-1.6618,-1.3401,-0.86137,-0.42981,0.14834,0.32286,0.42744,0.44735,0.27525,0.37215,0.25079,0.10107,-0.072651,-0.65962,-1.2119,-2.0099,-2.8156,-3.3861,-4.0721,-4.3886,-4.6005,-4.7114,-4.4601,-4.3372,-3.992,-3.6726,-3.5111,-3.0574,-2.7642,-2.34,-1.8325,-1.5061,-0.93895,-0.60591,-0.31729,0.020512,0.10713,0.455,0.70871,0.93164,1.3463,1.5435,1.9668,2.3128,2.5068,2.8858,2.9848,3.1625,3.2825,3.1701,3.2398,3.0344,2.9019,2.8996,2.7394,2.8694,2.8327,2.7534,2.7776,2.5569,2.5637,2.4409,2.2308,2.2064,1.9176,1.8026,1.6356,1.3181,1.2299,0.93536,0.82346,0.79425,0.60981,0.6656,0.49523,0.37498,0.38907,0.23669,0.3787,0.41085,0.46429,0.65889,0.52317,0.54706,0.47342,0.32318,0.36248,0.15214
-0.42491,-0.4939,-0.43944,-0.3385,-0.22783,-0.12213,-0.13252,-0.1682,-0.20872,-0.24518,-0.19673,-0.21986,-0.28659,-0.34101,-0.36754,-0.28214,-0.22291,-0.14123,0.040112,0.21521,0.43847,0.60654,0.62677,0.57958,0.44181,0.35752,0.32349,0.2184,0.065831,-0.16209,-0.38815,-0.64023,-0.95449,-1.1669,-1.2907,-1.248,-0.98247,-0.6133,-0.17332,0.14173,0.3118,0.47857,0.62719,0.84752,1.0563,1.1531,1.1419,0.93645,0.74181,0.69751,0.75607,0.89163,0.92126,0.78336,0.441,-0.016873,-0.3744,-0.71847,-1.0286,-1.2652,-1.4574,-1.4744,-1.3887,-1.2804,-1.1762,-1.206,-1.2203,-1.1777,-1.1727,-1.1597,-1.1306,-1.0248,-0.91739,-0.9106,-0.91334,-0.93646,-0.87516,-0.70573,-0.53906,-0.32958,-0.13096,0.048363,0.22857,0.33496,0.44278,0.52129,0.60585,0.76556,0.89433,0.98434,0.97998,0.87365,0.81128,0.78046,0.81041,0.8603,0.82781,0.8271,0.86418,0.94214,1.0072,0.94429,0.88552,0.85242,0.81055,0.75809,0.62312,0.5171,0.42315,0.30411,0.19556,0.040555,-0.0070203,0.076664,0.16469,0.22657,0.1837,0.14935,0.21241,0.31646,0.47387,0.50219,0.37611,0.24636,0.14486,0.148,0.13094,0.090824
-0.23422,-0.33588,-0.311,0.10871,-0.1462,-0.013043,-0.14425,-0.31809,0.098076,-0.086347,0.060618,0.051898,-0.25017,0.091221,-0.0014621,0.2756,0.61827,0.40324,0.57912,0.041851,-0.60926,-1.2781,-2.6926,-3.4408,-4.0549,-3.9835,-2.8728,-2.0194,-0.62817,0.42022,1.0691,2.0643,2.3118,2.7855,3.0842,2.8613,3.0449,2.5706,2.3263,2.2906,1.8102,1.8909,1.4607,1.0634,1.0146,0.46906,0.47941,0.16062,-0.21646,0.0050925,-0.15501,0.3242,0.66837,0.54525,0.7249,0.19928,-0.01723,-0.19829,-0.83856,-0.95362,-1.5505,-1.8514,-1.7952,-2.1118,-1.7414,-1.7681,-1.8418,-1.5498,-1.7718,-1.4022,-1.2535,-1.3053,-0.91604,-1.1161,-0.85575,-0.65247,-0.75982,-0.32556,-0.47398,-0.36691,-0.18344,-0.39021,0.12322,0.21545,0.37017,0.70294,0.43529,0.69403,0.61143,0.52936,0.8896,0.62318,0.80993,0.82449,0.68161,1.1163,0.95388,1.0901,1.1255,0.7648,1.013,0.75124,0.72553,0.85608,0.49345,0.73464,0.5459,0.40329,0.56262,0.15663,0.30895,0.22566,0.14363,0.56426,0.34101,0.47626,0.42389,0.12496,0.43929,0.2682,0.47218,0.65136,0.26799,0.38334,0.012714,-0.099808,0.059763,-0.2636
-0.14996,-0.32705,-0.32121,-0.058866,-0.18288,0.12704,0.16106,0.15267,0.43461,0.22296,0.35276,0.32688,0.15469,0.3871,0.21827,0.39867,0.54552,0.34682,0.49206,0.10418,-0.25672,-0.69652,-1.6355,-2.0224,-2.3864,-2.1863,-1.2972,-0.59362,0.55535,1.3041,1.7153,2.2458,2.1648,2.3125,2.2437,1.8758,1.8386,1.298,0.99937,0.76297,0.28037,0.34591,0.1456,0.18358,0.42845,0.26149,0.47424,0.33291,0.2055,0.3882,0.13096,0.25658,0.13363,-0.26418,-0.47138,-1.2395,-1.6986,-2.1848,-2.884,-3.1136,-3.6874,-3.9167,-3.9161,-4.0986,-3.6978,-3.6395,-3.5233,-3.1759,-3.1706,-2.6582,-2.3655,-2.1087,-1.5445,-1.4591,-1.0357,-0.80936,-0.76888,-0.31716,-0.30639,-0.01493,0.27422,0.32711,0.89404,1.0696,1.3749,1.7486,1.7016,2.0422,2.0138,2.0132,2.2453,2.0226,2.2094,2.1828,2.0744,2.3124,2.0753,2.1474,2.1103,1.8859,2.1072,1.8875,1.8898,1.8989,1.5621,1.6815,1.444,1.3426,1.399,1.0582,1.1812,1.067,1.0317,1.2889,1.0267,1.0805,0.95261,0.75062,0.97221,0.78762,0.94821,1.0077,0.70026,0.74732,0.38541,0.28222,0.26882,-0.063886
-0.26385,-0.43329,-0.51724,-0.045679,-0.37794,0.046271,0.060145,-0.17905,0.27241,-0.13815,0.090303,0.20711,-0.14597,0.25879,-0.17579,-0.1652,-0.019527,-0.50195,-0.059574,-0.24108,-0.20296,0.13618,-0.45096,-0.26171,-0.45669,-0.40915,0.55501,0.86569,1.8852,2.3507,2.1548,2.435,1.7258,1.5621,1.386,0.70235,0.82336,0.080404,-0.34479,-0.50629,-1.2263,-0.84426,-0.85341,-0.57123,0.23255,0.18061,0.86418,1.0321,0.9997,1.5478,1.1067,1.2144,0.97888,0.17653,0.0063037,-1.0698,-1.6201,-2.0588,-3.0198,-3.0135,-3.6209,-3.8176,-3.591,-4.0232,-3.5307,-3.6258,-3.694,-3.1593,-3.3976,-2.7736,-2.4594,-2.3797,-1.5976,-1.7149,-1.2273,-0.90071,-1.0717,-0.41554,-0.56877,-0.26049,0.24723,0.16153,1.0148,1.1617,1.4154,1.9633,1.6422,2.1382,2.1174,1.997,2.4209,1.8951,2.1016,2.0874,1.793,2.2686,1.8533,1.9818,2.099,1.6962,2.1674,1.838,1.8417,2.0963,1.6154,1.9879,1.695,1.4696,1.714,1.1331,1.3976,1.2609,0.99877,1.4141,0.88997,0.97769,0.86093,0.39018,0.82872,0.49724,0.70511,0.93634,0.40694,0.65558,0.16012,-0.007771,0.18474,-0.36657
-0.50365,-0.50088,-0.49567,-0.34764,-0.35414,-0.20578,-0.10093,-0.088345,0.060898,0.0010843,0.044426,0.13223,0.13754,0.32132,0.34812,0.43227,0.52903,0.40934,0.3909,0.10465,-0.34959,-0.83525,-1.5021,-1.7778,-1.7416,-1.3352,-0.48448,0.28173,1.1018,1.6862,1.9478,2.221,2.1928,2.1551,2.071,1.761,1.5206,1.0178,0.5186,0.18743,-0.13922,-0.12159,-0.1334,-0.15522,-0.061305,-0.13537,0.011309,0.18234,0.35484,0.69302,0.75234,0.79193,0.66367,0.22996,-0.17913,-0.82397,-1.3855,-1.8714,-2.468,-2.7854,-3.1092,-3.2783,-3.2523,-3.3646,-3.2798,-3.3004,-3.3352,-3.1139,-2.9625,-2.5889,-2.2245,-1.9655,-1.5698,-1.4164,-1.2056,-0.99831,-0.88235,-0.50524,-0.25122,0.063472,0.45068,0.66826,1.0802,1.3243,1.4898,1.723,1.737,1.9055,2.0013,2.0159,2.1349,1.98,1.9456,1.9386,1.8653,2.0153,1.9869,2.0002,2.0291,1.9132,1.9728,1.8409,1.7256,1.7207,1.5436,1.5546,1.443,1.2835,1.2515,1.0482,1.0426,0.99994,0.91153,1.0077,0.87019,0.78697,0.6838,0.4913,0.54743,0.48707,0.55469,0.68589,0.58426,0.60065,0.44037,0.29168,0.23511,0.0084302
-0.088824,-0.15188,-0.048903,0.18583,-0.097681,0.091784,-0.035234,-0.09725,0.20764,-0.01626,0.19873,0.21348,0.10299,0.43046,0.26658,0.51881,0.70951,0.56513,0.77432,0.21265,-0.44633,-1.2946,-2.6003,-3.1101,-3.5026,-3.2324,-2.3366,-1.7246,-0.56267,0.2402,0.92269,1.9052,2.2501,2.8549,3.1125,2.9823,3.125,2.6007,2.3421,2.1333,1.694,1.7678,1.2764,0.85045,0.4887,-0.25557,-0.30834,-0.50246,-0.4445,-0.0074877,-0.073191,0.28202,0.30825,0.10616,0.1537,-0.40951,-0.60746,-0.8955,-1.3799,-1.3453,-1.7587,-1.8175,-1.7626,-2.0206,-1.7582,-1.9955,-2.1309,-2.0034,-2.2101,-1.8382,-1.7836,-1.7677,-1.452,-1.6517,-1.4286,-1.4354,-1.5489,-1.1327,-1.1346,-0.72947,-0.37036,-0.31747,0.18826,0.15999,0.29547,0.48891,0.30934,0.66157,0.63481,0.71437,1.0205,0.78887,0.98853,0.89447,0.77708,1.1042,0.99188,1.2692,1.3482,1.1903,1.4333,1.1506,1.1968,1.2718,1.0347,1.2922,1.0892,1.0534,1.1539,0.86419,1.0987,0.95681,0.8699,1.0711,0.77185,0.88872,0.76849,0.60433,0.86088,0.61422,0.76995,0.82695,0.57139,0.68678,0.29529,0.19942,0.14216,-0.24608
0.30434,0.08076,0.010552,0.32251,-0.15777,0.16602,0.056845,-0.07754,0.40202,-0.020796,0.19365,0.12832,-0.24036,0.15561,-0.2512,-0.1172,-0.0064382,-0.47171,-0.2108,-0.81706,-1.2223,-1.536,-2.594,-2.5769,-2.6885,-2.2133,-0.97028,-0.47318,0.68858,1.2364,1.473,2.3158,2.3059,2.8602,3.0562,2.6256,2.6721,1.6526,1.0395,0.61049,-0.24495,-0.16056,-0.72573,-0.97266,-0.76585,-1.0758,-0.4208,-0.27148,-0.093163,0.61073,0.45165,0.93061,0.93597,0.56227,0.74189,0.05038,-0.01817,-0.15471,-0.76172,-0.65169,-1.3556,-1.6189,-1.6179,-2.0898,-1.6197,-1.8349,-1.9414,-1.6289,-1.947,-1.3602,-1.2387,-1.2379,-0.70254,-0.99754,-0.57131,-0.39182,-0.47017,0.18515,-0.00026279,0.31769,0.56195,0.29795,0.87556,0.66113,0.68783,0.88993,0.46583,0.88476,0.7072,0.63164,0.96963,0.47503,0.7028,0.55547,0.35707,0.83959,0.53968,0.85918,0.90182,0.51155,0.86265,0.47065,0.58083,0.69399,0.19549,0.55719,0.33457,0.44445,0.83076,0.44159,0.72918,0.42395,0.27036,0.75292,0.46996,0.8033,0.67642,0.32285,0.67797,0.32631,0.62032,0.70754,0.24698,0.51418,0.072364,0.043262,0.018097,-0.62635
0.16104,0.013107,0.029066,0.64615,0.11462,0.35124,0.069424,-0.37187,0.1074,-0.42996,-0.20893,-0.15272,-0.58626,-0.084571,-0.63888,-0.71447,-0.70632,-1.4615,-1.0967,-1.4451,-1.4798,-1.2223,-2.0938,-1.9133,-1.9754,-1.5629,-0.1686,0.17813,1.2076,1.6333,1.5915,2.4346,2.2044,2.5531,2.6915,2.0314,2.1215,1.0142,0.29946,0.0060197,-0.86472,-0.49676,-0.79211,-0.87134,-0.34134,-0.66014,0.11447,0.37905,0.44145,1.1651,0.6897,0.91044,0.82083,0.26366,0.65158,0.092958,0.19894,0.30569,-0.44128,-0.3174,-1.1323,-1.4891,-1.3031,-1.879,-1.3592,-1.5685,-1.7823,-1.3143,-1.7639,-1.1986,-1.0341,-1.157,-0.43305,-0.7422,-0.33101,-0.20134,-0.71118,-0.19329,-0.57434,-0.37786,0.036712,-0.27551,0.51077,0.40103,0.37737,0.71105,0.08249,0.51535,0.43233,0.32741,0.92473,0.38049,0.62444,0.54057,0.12635,0.70358,0.31981,0.60552,0.81203,0.32027,0.83889,0.44163,0.47065,0.77842,0.17952,0.60923,0.31318,0.17913,0.63838,0.12446,0.59573,0.57728,0.4174,1.0656,0.61019,0.84945,0.79368,0.28598,0.83061,0.44355,0.6684,0.93453,0.35946,0.75325,0.27998,0.099548,0.23568,-0.51445
0.50425,0.10427,-0.14782,0.60093,-0.34282,0.37121,0.22199,-0.26755,0.64678,-0.26698,0.17038,0.2647,-0.45306,0.47272,-0.38686,-0.32308,-0.18574,-1.4099,-0.80612,-1.584,-1.75,-1.2309,-2.3441,-1.5577,-1.5588,-1.2573,0.30521,0.078447,1.3029,1.668,1.3861,2.6118,2.0326,2.6658,3.0556,2.2115,2.7655,1.3647,0.68538,0.53226,-0.75409,-0.073208,-0.73156,-1.0552,-0.41403,-1.258,-0.22728,-0.063637,-0.067457,1.1741,0.50065,1.1547,1.2027,0.3671,0.97079,-0.19564,-0.16198,-0.0072196,-1.0233,-0.32768,-1.205,-1.4117,-1.0149,-2.0645,-1.2558,-1.6467,-1.938,-1.1854,-2.0996,-1.3332,-1.3164,-1.7043,-0.67482,-1.4058,-0.82661,-0.61583,-1.3036,-0.26007,-0.82457,-0.41742,0.24296,-0.38253,0.76626,0.38213,0.30426,0.87347,-0.15943,0.57933,0.33395,0.095004,1.0421,0.14732,0.69991,0.63898,0.031754,0.98805,0.23251,0.62925,0.89073,0.10478,1.0326,0.40664,0.56906,1.1628,0.30947,1.1784,0.72236,0.52978,1.2371,0.30061,1.0213,0.82894,0.44508,1.4093,0.58128,1.0465,1.0401,0.32619,1.2462,0.48903,0.80263,1.1726,0.25789,1.03,0.33064,0.20424,0.61227,-0.48868
