0,0,1
1,1,1
2,2,1
3,3,1
4,4,1
5,5,1
6,6,1
7,7,1
8,8,1
9,9,1
10,A,1
11,B,1
12,C,1
13,D,1
14,E,1
15,F,1
16,10,1
17,11,1
18,12,1
19,13,1
20,14,1
21,15,1
22,16,1
23,17,1
24,18,1
25,19,1
26,1A,1
27,1B,1
28,1C,1
29,1D,1
30,1E,1
31,1F,1
32,20,1
33,21,1
34,22,1
35,23,1
36,24,1
37,25,1
38,26,1
39,27,1
40,28,1
41,29,1
42,2A,1
43,2B,1
44,2C,1
45,2D,1
46,2E,1
47,2F,1
48,30,1
49,31,1
50,32,1
51,33,1
52,34,1
53,35,1
54,36,1
55,37,1
56,38,1
57,39,1
58,3A,1
59,3B,1
60,3C,1
61,3D,1
62,3E,1
63,3F,1
64,40,1
65,41,1
66,42,1
67,43,1
68,44,1
69,45,1
70,46,1
71,47,1
72,48,1
73,49,1
74,4A,1
75,4B,1
76,4C,1
77,4D,1
78,4E,1
79,4F,1
80,50,1
81,51,1
82,52,1
83,53,1
84,54,1
85,55,1
86,56,1
87,57,1
88,58,1
89,59,1
90,5A,1
91,5B,1
92,5C,1
93,5D,1
94,5E,1
95,5F,1
96,60,1
97,61,1
98,62,1
99,63,1
100,64,1
101,65,1
102,66,1
103,67,1
104,68,1
105,69,1
106,6A,1
107,6B,1
108,6C,1
109,6D,1
110,6E,1
111,6F,1
112,70,1
113,71,1
114,72,1
115,73,1
116,74,1
117,75,1
118,76,1
119,77,1
120,78,1
121,79,1
122,7A,1
123,7B,1
124,7C,1
125,7D,1
126,7E,1
127,7F,1
128,80,1
129,81,1
130,82,1
131,83,1
132,84,1
133,85,1
134,86,1
135,87,1
136,88,1
137,89,1
138,8A,1
139,8B,1
140,8C,1
141,8D,1
142,8E,1
143,8F,1
144,90,1
145,91,1
146,92,1
147,93,1
148,94,1
149,95,1
150,96,1
151,97,1
152,98,1
153,99,1
154,9A,1
155,9B,1
156,9C,1
157,9D,1
158,9E,1
159,9F,1
160,A0,1
161,A1,1
162,A2,1
163,A3,1
164,A4,1
165,A5,1
166,A6,1
167,A7,1
168,A8,1
169,A9,1
170,AA,1
171,AB,1
172,AC,1
173,AD,1
174,AE,1
175,AF,1
176,B0,1
177,B1,1
178,B2,1
179,B3,1
180,B4,1
181,B5,1
182,B6,1
183,B7,1
184,B8,1
185,B9,1
186,BA,1
187,BB,1
188,BC,1
189,BD,1
190,BE,1
191,BF,1
192,C0,1
193,C1,1
194,C2,1
195,C3,1
196,C4,1
197,C5,1
198,C6,1
199,C7,1
200,C8,1
201,C9,1
202,CA,1
203,CB,1
204,CC,1
205,CD,1
206,CE,1
207,CF,1
208,D0,1
209,D1,1
210,D2,1
211,D3,1
212,D4,1
213,D5,1
214,D6,1
215,D7,1
216,D8,1
217,D9,1
218,DA,1
219,DB,1
220,DC,1
221,DD,1
222,DE,1
223,DF,1
224,E0,1
225,E1,1
226,E2,1
227,E3,1
228,E4,1
229,E5,1
230,E6,1
231,E7,1
232,E8,1
233,E9,1
234,EA,1
235,EB,1
236,EC,1
237,ED,1
238,EE,1
239,EF,1
240,F0,1
241,F1,1
242,F2,1
243,F3,1
244,F4,1
245,F5,1
246,F6,1
247,F7,1
248,F8,1
249,F9,1
250,FA,1
251,FB,1
252,FC,1
253,FD,1
254,FE,1
255,FF,1
