#flashes - rows - Code output 1
0x00008100,0x00008100,1
0x00008101,0x00008101,1
0x00008102,0x00008102,1
0x00008103,0x00008103,1
0x00008104,0x00008104,1
0x00008105,0x00008105,1
0x00008106,0x00008106,1
0x00008107,0x00008107,1
0x00008108,0x00008108,1
0x00008109,0x00008109,1
0x0000810A,0x0000810A,1
0x0000810B,0x0000810B,1
0x0000810C,0x0000810C,1
0x0000810D,0x0000810D,1
0x0000810E,0x0000810E,1
0x0000810F,0x0000810F,1

#flashes - columns - Code output 1
0x00008110,0x00008110,1
0x00008111,0x00008111,1
0x00008112,0x00008112,1
0x00008113,0x00008113,1
0x00008114,0x00008114,1
0x00008115,0x00008115,1
0x00008116,0x00008116,1
0x00008117,0x00008117,1
0x00008118,0x00008118,1
0x00008119,0x00008119,1
0x0000811A,0x0000811A,1
0x0000811B,0x0000811B,1
0x0000811C,0x0000811C,1
0x0000811D,0x0000811D,1
0x0000811E,0x0000811E,1
0x0000811F,0x0000811F,1

#flashes - rows - Non Target Output 2
0x00008100,0x00008206,2
0x00008101,0x00008206,2
0x00008102,0x00008206,2
0x00008103,0x00008206,2
0x00008104,0x00008206,2
0x00008105,0x00008206,2
0x00008106,0x00008206,2
0x00008107,0x00008206,2
0x00008108,0x00008206,2
0x00008109,0x00008206,2
0x0000810A,0x00008206,2
0x0000810B,0x00008206,2
0x0000810C,0x00008206,2
0x0000810D,0x00008206,2
0x0000810E,0x00008206,2
0x0000810F,0x00008206,2

#flashes - columns - Non Target Output 2
0x00008110,0x00008206,2
0x00008111,0x00008206,2
0x00008112,0x00008206,2
0x00008113,0x00008206,2
0x00008114,0x00008206,2
0x00008115,0x00008206,2
0x00008116,0x00008206,2
0x00008117,0x00008206,2
0x00008118,0x00008206,2
0x00008119,0x00008206,2
0x0000811A,0x00008206,2
0x0000811B,0x00008206,2
0x0000811C,0x00008206,2
0x0000811D,0x00008206,2
0x0000811E,0x00008206,2
0x0000811F,0x00008206,2

#targets - rows (+20) - Code output 1
0x00008120,0x00008100,1
0x00008121,0x00008101,1
0x00008122,0x00008102,1
0x00008123,0x00008103,1
0x00008124,0x00008104,1
0x00008125,0x00008105,1
0x00008126,0x00008106,1
0x00008127,0x00008107,1
0x00008128,0x00008108,1
0x00008129,0x00008109,1
0x0000812A,0x0000810A,1
0x0000812B,0x0000810B,1
0x0000812C,0x0000810C,1
0x0000812D,0x0000810D,1
0x0000812E,0x0000810E,1
0x0000812F,0x0000810F,1

#tragets - columns (+20) - Code output 1
0x00008130,0x00008110,1
0x00008131,0x00008111,1
0x00008132,0x00008112,1
0x00008133,0x00008113,1
0x00008134,0x00008114,1
0x00008135,0x00008115,1
0x00008136,0x00008116,1
0x00008137,0x00008117,1
0x00008138,0x00008118,1
0x00008139,0x00008119,1
0x0000813A,0x0000811A,1
0x0000813B,0x0000811B,1
0x0000813C,0x0000811C,1
0x0000813D,0x0000811D,1
0x0000813E,0x0000811E,1
0x0000813F,0x0000811F,1

#targets - rows (+20) - Target Output 2
0x00008120,0x00008205,2
0x00008121,0x00008205,2
0x00008122,0x00008205,2
0x00008123,0x00008205,2
0x00008124,0x00008205,2
0x00008125,0x00008205,2
0x00008126,0x00008205,2
0x00008127,0x00008205,2
0x00008128,0x00008205,2
0x00008129,0x00008205,2
0x0000812A,0x00008205,2
0x0000812B,0x00008205,2
0x0000812C,0x00008205,2
0x0000812D,0x00008205,2
0x0000812E,0x00008205,2
0x0000812F,0x00008205,2

#tragets - columns (+20) - Target Output 2
0x00008130,0x00008205,2
0x00008131,0x00008205,2
0x00008132,0x00008205,2
0x00008133,0x00008205,2
0x00008134,0x00008205,2
0x00008135,0x00008205,2
0x00008136,0x00008205,2
0x00008137,0x00008205,2
0x00008138,0x00008205,2
0x00008139,0x00008205,2
0x0000813A,0x00008205,2
0x0000813B,0x00008205,2
0x0000813C,0x00008205,2
0x0000813D,0x00008205,2
0x0000813E,0x00008205,2
0x0000813F,0x00008205,2

#control values
#Experiment start
0x00008001,0x00008001,1
#Experiement stop
0x00008002,0x00008002,1
0x00008002,0x00008002,2
#End of repetition
0x000081ff,0x000081ff,1
