{
  "baseDir": "/",
  "JQMTheme": "a",
  "settings": [
    {
      "id": "ov_settings",
      "value": {
        "ov_working_dir": "C:\\Program Files (x86)\\openvibe\\",
        "ov_scenario_dir": "share\\openvibe-scenarios\\Gipsa-lab\\scenario\\",
        "ov_scenario_online": "online-fixed-brainproducts.xml",
        "ov_scenario_training": "train-mdm-brainproducts.xml",
        "ov_running_mode": "1",
        "ov_fastplay": "0",
        "ov_nogui": "0",
        "ov_tagging_mode": "2",
        "ov_tagger_serial": "COM10",
        "ov_tagger_parallel": "57336",
        "ov_flashing_mode": "0"
      }
    },
    {
      "id": "p300_settings",
      "value": {
        "p300_flash_duration": "152",
        "p300_noflash_duration": "120",
        "p300_training_maxrepetition": "5",
        "p300_online_maxrepetition": "3",
        "p300_interrepetition_delay": "800",
        "p300_epsilon": "0.0025",
        "p300_training_numtargets": "5",
        "p300_flashing_effect": "2",
        "p300_target_beep": "0",
        "p300_autopause": "0"
      }
    },
    {
      "id": "defiler_settings",
      "value": {
        "defiler_duration": "850",
        "defiler_strategy": "1",
        "defiler_keybinding": "TAB",
        "defiler_maxrepetition": "3",
        "defiler_beep": "1",
        "defiler_keybinding_keycode": "9"
      }
    },
    {
      "id": "brainmium_settings",
      "value": {
        "brainmium_hk_fullscreen": "F6",
        "brainmium_hk_fullscreen_keycode": "117",
        "brainmium_hk_showfps": "F7",
        "brainmium_hk_showfps_keycode": "118",
        "brainmium_hk_forceresume": "F8",
        "brainmium_hk_forceresume_keycode": "119",
        "brainmium_hk_pauseresume": "F9",
        "brainmium_hk_pauseresume_keycode": "120"
      }
    }
  ]
}